196 17 14 255
224 98 31 255
255 165 30 255
105 145 68 255
51 109 67 255
42 135 168 255
30 79 118 255
155 101 216 255
DIV: Standard

226 128 128 255
242 161 121 255
255 231 140 255
105 173 123 255
145 254 211 255
237 251 252 255
139 154 224 255
228 175 227 255
DIV: Pastels

255 0 128 255
128 0 128 255
77 19 49 255
12 24 100 255
34 79 255 255
0 100 0 255
0 255 0 255
255 255 0 255
DIV: Others

206 35 35 128
255 165 30 128
105 145 68 128
88 205 252 128
255 255 255 128
255 255 255 224
0 0 0 128
255 0 255 0
DIV: Transparent

176 55 78 255
112 17 10 255
169 197 206 255
95 117 119 255
31 49 51 255
115 125 58 255
77 84 40 255
44 51 25 255
DIV: Scales

255 233 199 255
230 184 149 255
153 123 99 255
107 73 48 255
72 48 32 255
42 29 19 255
139 125 107 255
101 90 78 255
DIV: Browns 1

207 163 100 255
186 138 67 255
149 79 10 255
100 50 0 255
130 67 50 255
116 81 29 255
81 61 30 255
100 66 25 200
DIV: Browns 2

255 250 243 255
230 228 225 255
175 173 170 255
127 125 122 255
98 97 95 255
50 50 49 255
24 24 22 255
0 0 0 255
DIV: Greyscale
